{
  "3600-athletic_brown": {
    "lifestyle_male": {
      "x": "35",
      "y": "21",
      "width": "30",
      "height": "42"
    }
  },
  "3600-athletic_gray": {
    "lifestyle_male": {
      "x": "35",
      "y": "21",
      "width": "30",
      "height": "42"
    }
  },
  "3600-athletic_navy": {
    "lifestyle_male": {
      "x": "36",
      "y": "21",
      "width": "30",
      "height": "42"
    }
  },
  "3600-black": {
    "lifestyle_male": {
      "x": "36",
      "y": "21",
      "width": "30",
      "height": "42"
    }
  },
  "3600-green": {
    "lifestyle_male": {
      "x": "35.5",
      "y": "21",
      "width": "30",
      "height": "42"
    }
  },
  "3600-pool": {
    "lifestyle_male": {
      "x": "35.5",
      "y": "21",
      "width": "30",
      "height": "42"
    }
  },
  "3600-red": {
    "lifestyle_male": {
      "x": "35.5",
      "y": "21",
      "width": "30",
      "height": "42"
    }
  },
  "3600-white": {
    "lifestyle_male": {
      "x": "35.5",
      "y": "21",
      "width": "30",
      "height": "42"
    }
  },
  "611-athletic_gray_black": {
    "lifestyle_male": {
      "x": "35",
      "y": "23",
      "width": "30",
      "height": "42"
    }
  },
  "611-oatmeal_black": {
    "lifestyle_male": {
      "x": "35",
      "y": "23",
      "width": "30",
      "height": "42"
    }
  },
  "611-athletic_gray_navy": {
    "lifestyle_male": {
      "x": "35",
      "y": "23",
      "width": "30",
      "height": "42"
    }
  },
  "611-oatmeal_maroon": {
    "lifestyle_male": {
      "x": "35",
      "y": "23",
      "width": "30",
      "height": "42"
    }
  },
  "611-oatmeal_moss": {
    "lifestyle_male": {
      "x": "35",
      "y": "23",
      "width": "30",
      "height": "42"
    }
  },
  "3200bc-white_blue": {
    "lifestyle_male": {
      "x": "35",
      "y": "23",
      "width": "30",
      "height": "42"
    }
  },
  "3200bc-white_dark_green": {
    "lifestyle_male": {
      "x": "35",
      "y": "23",
      "width": "30",
      "height": "42"
    }
  },
  "3200bc-white_neon_pink": {
    "lifestyle_male": {
      "x": "35",
      "y": "23",
      "width": "30",
      "height": "42"
    }
  },
  "3200bc-white_red": {
    "lifestyle_male": {
      "x": "35",
      "y": "23",
      "width": "30",
      "height": "42"
    }
  },
  "508-athletic_gray_black": {
    "lifestyle_female": {
      "x": "33.5",
      "y": "24",
      "width": "30",
      "height": "42"
    }
  },
  "508-oatmeal_berry": {
    "lifestyle_female": {
      "x": "33.5",
      "y": "24",
      "width": "30",
      "height": "42"
    }
  },
  "508-athletic_gray_navy": {
    "lifestyle_female": {
      "x": "33.5",
      "y": "24",
      "width": "30",
      "height": "42"
    }
  },
  "3480bc-gold":{
    "lifestyle_male" : {
      "x": "35",
      "y": "28",
      "width": "28",
      "height": "39"
    }
  },
  "3480bc-heathered_blue_bc":{
    "lifestyle_male" : {
      "x": "35",
      "y": "28",
      "width": "28",
      "height": "39"
    }
  },
  "3480bc-heathered_gray_bc":{
    "lifestyle_male" : {
      "x": "35",
      "y": "28",
      "width": "28",
      "height": "39"
    }
  },
  "3480bc-neon_pink":{
    "lifestyle_male" : {
      "x": "35",
      "y": "28",
      "width": "28",
      "height": "39"
    }
  },
  "3480bc-white":{
    "lifestyle_male" : {
      "x": "35",
      "y": "28",
      "width": "28",
      "height": "39"
    }
  },
  "3480bc-black":{
    "lifestyle_male" : {
      "x": "35.4",
      "y": "28",
      "width": "28",
      "height": "39"
    }
  },
  "6010-heathered_black":{
    "lifestyle_male":{
      "x": "37",
      "y": "22",
      "width": "28",
      "height": "40"
    }
  },
  "6010-heathered_gray_nl":{
    "lifestyle_male":{
      "x": "37",
      "y": "22",
      "width": "28",
      "height": "40"
    }
  },
  "6010-heathered_maroon":{
    "lifestyle_male":{
      "x": "37",
      "y": "22",
      "width": "28",
      "height": "40"
    }
  },
  "6010-moss":{
    "lifestyle_male":{
      "x": "37",
      "y": "22",
      "width": "28",
      "height": "40"
    }
  },
  "6010-oatmeal":{
    "lifestyle_male":{
      "x": "37",
      "y": "22",
      "width": "28",
      "height": "40"
    }
  },
  "6040-heathered_black":{
    "lifestyle_male":{
      "x": "37",
      "y": "24",
      "width": "28",
      "height": "40"
    }
  },
  "6040-heathered_gray_nl":{
    "lifestyle_male":{
      "x": "37",
      "y": "24",
      "width": "28",
      "height": "40"
    }
  },
  "6040-heathered_maroon":{
    "lifestyle_male":{
      "x": "37",
      "y": "24",
      "width": "28",
      "height": "40"
    }
  },
  "6040-moss":{
    "lifestyle_male":{
      "x": "37",
      "y": "24",
      "width": "28",
      "height": "40"
    }
  },
  "6040-oatmeal":{
    "lifestyle_male":{
      "x": "37",
      "y": "24",
      "width": "28",
      "height": "40"
    }
  },
  "6710-heathered_black":{
    "lifestyle_female":{
      "x": "36",
      "y": "22",
      "width": "28",
      "height": "40"
    }
  },
  "6710-heathered_blue_nl":{
    "lifestyle_female":{
      "x": "36",
      "y": "22",
      "width": "28",
      "height": "40"
    }
  },
  "6710-heathered_gray_nl":{
    "lifestyle_female":{
      "x": "36",
      "y": "22",
      "width": "28",
      "height": "40"
    }
  },
  "3300-athletic_gray":{
    "lifestyle_female":{
      "x": "36",
      "y": "22",
      "width": "28",
      "height": "40"
    }
  },
  "3300-deep_pink":{
    "lifestyle_female":{
      "x": "36.5",
      "y": "24",
      "width": "28",
      "height": "40"
    }
  },
  "3300-light_pink_nl":{
    "lifestyle_female":{
      "x": "36.5",
      "y": "24",
      "width": "28",
      "height": "40"
    }
  },
  "3300-red":{
    "lifestyle_female":{
      "x": "36.5",
      "y": "24",
      "width": "28",
      "height": "40"
    }
  },
  "3300-white":{
    "lifestyle_female":{
      "x": "36.5",
      "y": "24",
      "width": "28",
      "height": "40"
    }
  }
}